Data_visualization
…
Adding in data

Legumes <- read_csv(file = "data/legume_weights_rhizobia_20str.csv")

## Parsed with column specification:
## cols(
##   Block = col_character(),
##   Plant = col_character(),
##   Strain = col_integer(),
##   weight = col_double()
## )

Legumes

## # A tibble: 1,200 x 4
##    Block Plant Strain weight
##    <chr> <chr>  <int>  <dbl>
##  1 A     Ad      1075   3.27
##  2 B     Ad      1075   1.85
##  3 C     Ad      1075   3.36
##  4 D     Ad      1075   1.92
##  5 E     Ad      1075   2.17
##  6 V     Ad      1075   2.53
##  7 W     Ad      1075   2.44
##  8 X     Ad      1075   2.05
##  9 Y     Ad      1075   2.37
## 10 Z     Ad      1075   0.81
## # ... with 1,190 more rows

Make Data tidy

Will make the data tidy by combining the first 3 lists to make a unique identifier. Will retain all the lists for visualization

Legumes1 <- Legumes %>%
  unite(Identifier,Block, Plant, Strain, sep = "_")
Legumes1

## # A tibble: 1,200 x 2
##    Identifier weight
##    <chr>       <dbl>
##  1 A_Ad_1075    3.27
##  2 B_Ad_1075    1.85
##  3 C_Ad_1075    3.36
##  4 D_Ad_1075    1.92
##  5 E_Ad_1075    2.17
##  6 V_Ad_1075    2.53
##  7 W_Ad_1075    2.44
##  8 X_Ad_1075    2.05
##  9 Y_Ad_1075    2.37
## 10 Z_Ad_1075    0.81
## # ... with 1,190 more rows

That didnt work so I will try mutate instead

Legumes = mutate(Legumes,
   Identifier = paste(Block, Plant, Strain, sep = '_'))
Legumes <- Legumes[,c(5,1:4)]
Legumes

## # A tibble: 1,200 x 5
##    Identifier Block Plant Strain weight
##    <chr>      <chr> <chr>  <int>  <dbl>
##  1 A_Ad_1075  A     Ad      1075   3.27
##  2 B_Ad_1075  B     Ad      1075   1.85
##  3 C_Ad_1075  C     Ad      1075   3.36
##  4 D_Ad_1075  D     Ad      1075   1.92
##  5 E_Ad_1075  E     Ad      1075   2.17
##  6 V_Ad_1075  V     Ad      1075   2.53
##  7 W_Ad_1075  W     Ad      1075   2.44
##  8 X_Ad_1075  X     Ad      1075   2.05
##  9 Y_Ad_1075  Y     Ad      1075   2.37
## 10 Z_Ad_1075  Z     Ad      1075   0.81
## # ... with 1,190 more rows
…
Would have liked to compared plant size against control lines.

Stuff NOT to do

To get a feel how each plant has done with each strain I/m giong to use dplyr group by to group by plant and strain and use mean to xummarize the weights. Data contains NAs so will remove them.

Legumes_Av <-Legumes %>% 
  drop_na() %>% 
    group_by(Plant, Strain) %>% 
    summarise(mean_weight=mean(weight), n=n(), sd = sd(weight),se=sd/sqrt(n))

Legumes_Av

## # A tibble: 120 x 6
## # Groups:   Plant [?]
##    Plant Strain mean_weight     n    sd    se
##    <chr>  <int>       <dbl> <int> <dbl> <dbl>
##  1 Ad      1075       2.28     10 0.729 0.231
##  2 Ad      1088       0.484     8 0.920 0.325
##  3 Ad      1092       0.355     8 0.457 0.162
##  4 Ad      1093       1.18     10 0.724 0.229
##  5 Ad      1097       0.305     8 0.437 0.154
##  6 Ad      1104       0.895    10 0.521 0.165
##  7 Ad      1129       1.74     10 0.583 0.184
##  8 Ad      1144       1.82     10 0.710 0.225
##  9 Ad      1147       0.816    10 0.460 0.146
## 10 Ad      1152       1.28     10 0.372 0.118
## # ... with 110 more rows
…
